lab1/simulation/modelsim/msim_transcript
# Reading C:/intelFPGA_lite/16.1/modelsim_ase/tcl/vsim/pref.tcl
# do lab1_run_msim_rtl_verilog.do
# if {[file exists rtl_work]} {
# 	vdel -lib rtl_work -all
# }
# vlib rtl_work
# vmap work rtl_work
# Model Technology ModelSim - Intel FPGA Edition vmap 10.5b Lib Mapping Utility 2016.10 Oct  5 2016
# vmap work rtl_work 
# Copying C:/intelFPGA_lite/16.1/modelsim_ase/win32aloem/../modelsim.ini to modelsim.ini
# Modifying modelsim.ini
# 
# vlog -vlog01compat -work work +incdir+D:/Quang/202/Verilog/lab1 {D:/Quang/202/Verilog/lab1/shifter.v}
# Model Technology ModelSim - Intel FPGA Edition vlog 10.5b Compiler 2016.10 Oct  5 2016
# Start time: 14:55:37 on May 03,2021
# vlog -reportprogress 300 -vlog01compat -work work "+incdir+D:/Quang/202/Verilog/lab1" D:/Quang/202/Verilog/lab1/shifter.v 
# -- Compiling module shifter
# 
# Top level modules:
# 	shifter
# End time: 14:55:37 on May 03,2021, Elapsed time: 0:00:00
# Errors: 0, Warnings: 0
# vlog -vlog01compat -work work +incdir+D:/Quang/202/Verilog/lab1 {D:/Quang/202/Verilog/lab1/processor.v}
# Model Technology ModelSim - Intel FPGA Edition vlog 10.5b Compiler 2016.10 Oct  5 2016
# Start time: 14:55:37 on May 03,2021
# vlog -reportprogress 300 -vlog01compat -work work "+incdir+D:/Quang/202/Verilog/lab1" D:/Quang/202/Verilog/lab1/processor.v 
# -- Compiling module processor
# 
# Top level modules:
# 	processor
# End time: 14:55:37 on May 03,2021, Elapsed time: 0:00:00
# Errors: 0, Warnings: 0
# vlog -vlog01compat -work work +incdir+D:/Quang/202/Verilog/lab1 {D:/Quang/202/Verilog/lab1/bound_flasher.v}
# Model Technology ModelSim - Intel FPGA Edition vlog 10.5b Compiler 2016.10 Oct  5 2016
# Start time: 14:55:37 on May 03,2021
# vlog -reportprogress 300 -vlog01compat -work work "+incdir+D:/Quang/202/Verilog/lab1" D:/Quang/202/Verilog/lab1/bound_flasher.v 
# -- Compiling module bound_flasher
# 
# Top level modules:
# 	bound_flasher
# End time: 14:55:37 on May 03,2021, Elapsed time: 0:00:00
# Errors: 0, Warnings: 0
# 
# vlog -vlog01compat -work work +incdir+D:/Quang/202/Verilog/lab1 {D:/Quang/202/Verilog/lab1/t_bound_flasher.v}
# Model Technology ModelSim - Intel FPGA Edition vlog 10.5b Compiler 2016.10 Oct  5 2016
# Start time: 14:55:37 on May 03,2021
# vlog -reportprogress 300 -vlog01compat -work work "+incdir+D:/Quang/202/Verilog/lab1" D:/Quang/202/Verilog/lab1/t_bound_flasher.v 
# -- Compiling module t_bound_flasher
# 
# Top level modules:
# 	t_bound_flasher
# End time: 14:55:37 on May 03,2021, Elapsed time: 0:00:00
# Errors: 0, Warnings: 0
# 
# vsim -t 1ps -L altera_ver -L lpm_ver -L sgate_ver -L altera_mf_ver -L altera_lnsim_ver -L cycloneiv_hssi_ver -L cycloneiv_pcie_hip_ver -L cycloneiv_ver -L rtl_work -L work -voptargs="+acc"  test_bound_flasher
# vsim -t 1ps -L altera_ver -L lpm_ver -L sgate_ver -L altera_mf_ver -L altera_lnsim_ver -L cycloneiv_hssi_ver -L cycloneiv_pcie_hip_ver -L cycloneiv_ver -L rtl_work -L work -voptargs=""+acc"" test_bound_flasher 
# Start time: 14:55:37 on May 03,2021
# ** Error: (vsim-3170) Could not find 'test_bound_flasher'.
#         Searched libraries:
#             C:/intelFPGA_lite/16.1/modelsim_ase/altera/verilog/altera
#             C:/intelFPGA_lite/16.1/modelsim_ase/altera/verilog/220model
#             C:/intelFPGA_lite/16.1/modelsim_ase/altera/verilog/sgate
#             C:/intelFPGA_lite/16.1/modelsim_ase/altera/verilog/altera_mf
#             C:/intelFPGA_lite/16.1/modelsim_ase/altera/verilog/altera_lnsim
#             C:/intelFPGA_lite/16.1/modelsim_ase/altera/verilog/cycloneiv_hssi
#             C:/intelFPGA_lite/16.1/modelsim_ase/altera/verilog/cycloneiv_pcie_hip
#             C:/intelFPGA_lite/16.1/modelsim_ase/altera/verilog/cycloneiv
#             D:/Quang/202/Verilog/lab1/simulation/modelsim/rtl_work
#             D:/Quang/202/Verilog/lab1/simulation/modelsim/rtl_work
# Error loading design
# Error: Error loading design
#        Pausing macro execution
# MACRO ./lab1_run_msim_rtl_verilog.do PAUSED at line 14
vsim work.t_bound_flasher
# vsim work.t_bound_flasher 
# Start time: 14:55:37 on May 03,2021
# Loading work.t_bound_flasher
# Loading work.bound_flasher
# Loading work.processor
# Loading work.shifter
vsim work.t_bound_flasher
# End time: 14:55:48 on May 03,2021, Elapsed time: 0:00:11
# Errors: 1, Warnings: 0
# vsim work.t_bound_flasher 
# Start time: 14:55:48 on May 03,2021
# Loading work.t_bound_flasher
# Loading work.bound_flasher
# Loading work.processor
# Loading work.shifter
run 2000ps
#                    0: clock = 1 | flick = x | led = 0000000000000000
# 
#                    5: clock = 0 | flick = x | led = 0000000000000000
# 
#                   10: clock = 1 | flick = x | led = 0000000000000000
# 
#                   15: clock = 0 | flick = x | led = 0000000000000000
# 
#                   20: clock = 1 | flick = x | led = 0000000000000000
# 
#                   25: clock = 0 | flick = 1 | led = 0000000000000000
# 
#                   30: clock = 1 | flick = 0 | led = 0000000000000001
# 
#                   35: clock = 0 | flick = 0 | led = 0000000000000001
# 
#                   40: clock = 1 | flick = 0 | led = 0000000000000011
# 
#                   45: clock = 0 | flick = 0 | led = 0000000000000011
# 
#                   50: clock = 1 | flick = 0 | led = 0000000000000111
# 
#                   55: clock = 0 | flick = 0 | led = 0000000000000111
# 
#                   60: clock = 1 | flick = 0 | led = 0000000000001111
# 
#                   65: clock = 0 | flick = 0 | led = 0000000000001111
# 
#                   70: clock = 1 | flick = 0 | led = 0000000000011111
# 
#                   75: clock = 0 | flick = 0 | led = 0000000000011111
# 
#                   80: clock = 1 | flick = 0 | led = 0000000000111111
# 
#                   85: clock = 0 | flick = 0 | led = 0000000000111111
# 
#                   90: clock = 1 | flick = 0 | led = 0000000000011111
# 
#                   95: clock = 0 | flick = 0 | led = 0000000000011111
# 
#                  100: clock = 1 | flick = 0 | led = 0000000000001111
# 
#                  105: clock = 0 | flick = 0 | led = 0000000000001111
# 
#                  110: clock = 1 | flick = 0 | led = 0000000000000111
# 
#                  115: clock = 0 | flick = 0 | led = 0000000000000111
# 
#                  120: clock = 1 | flick = 0 | led = 0000000000000011
# 
#                  125: clock = 0 | flick = 0 | led = 0000000000000011
# 
#                  130: clock = 1 | flick = 0 | led = 0000000000000001
# 
#                  135: clock = 0 | flick = 0 | led = 0000000000000001
# 
#                  140: clock = 1 | flick = 0 | led = 0000000000000000
# 
#                  145: clock = 0 | flick = 0 | led = 0000000000000000
# 
#                  150: clock = 1 | flick = 0 | led = 0000000000000001
# 
#                  155: clock = 0 | flick = 0 | led = 0000000000000001
# 
#                  160: clock = 1 | flick = 0 | led = 0000000000000011
# 
#                  165: clock = 0 | flick = 0 | led = 0000000000000011
# 
#                  170: clock = 1 | flick = 0 | led = 0000000000000111
# 
#                  175: clock = 0 | flick = 0 | led = 0000000000000111
# 
#                  180: clock = 1 | flick = 0 | led = 0000000000001111
# 
#                  185: clock = 0 | flick = 0 | led = 0000000000001111
# 
#                  190: clock = 1 | flick = 0 | led = 0000000000011111
# 
#                  195: clock = 0 | flick = 0 | led = 0000000000011111
# 
#                  200: clock = 1 | flick = 0 | led = 0000000000111111
# 
#                  205: clock = 0 | flick = 0 | led = 0000000000111111
# 
#                  210: clock = 1 | flick = 0 | led = 0000000001111111
# 
#                  215: clock = 0 | flick = 0 | led = 0000000001111111
# 
#                  220: clock = 1 | flick = 0 | led = 0000000011111111
# 
#                  225: clock = 0 | flick = 0 | led = 0000000011111111
# 
#                  230: clock = 1 | flick = 0 | led = 0000000111111111
# 
#                  235: clock = 0 | flick = 0 | led = 0000000111111111
# 
#                  240: clock = 1 | flick = 0 | led = 0000001111111111
# 
#                  245: clock = 0 | flick = 0 | led = 0000001111111111
# 
#                  250: clock = 1 | flick = 0 | led = 0000011111111111
# 
#                  255: clock = 0 | flick = 0 | led = 0000011111111111
# 
#                  260: clock = 1 | flick = 0 | led = 0000001111111111
# 
#                  265: clock = 0 | flick = 0 | led = 0000001111111111
# 
#                  270: clock = 1 | flick = 0 | led = 0000000111111111
# 
#                  275: clock = 0 | flick = 0 | led = 0000000111111111
# 
#                  280: clock = 1 | flick = 0 | led = 0000000011111111
# 
#                  285: clock = 0 | flick = 0 | led = 0000000011111111
# 
#                  290: clock = 1 | flick = 0 | led = 0000000001111111
# 
#                  295: clock = 0 | flick = 0 | led = 0000000001111111
# 
#                  300: clock = 1 | flick = 0 | led = 0000000000111111
# 
#                  305: clock = 0 | flick = 0 | led = 0000000000111111
# 
#                  310: clock = 1 | flick = 0 | led = 0000000000011111
# 
#                  315: clock = 0 | flick = 0 | led = 0000000000011111
# 
#                  320: clock = 1 | flick = 0 | led = 0000000000111111
# 
#                  325: clock = 0 | flick = 0 | led = 0000000000111111
# 
#                  330: clock = 1 | flick = 0 | led = 0000000001111111
# 
#                  335: clock = 0 | flick = 0 | led = 0000000001111111
# 
#                  340: clock = 1 | flick = 0 | led = 0000000011111111
# 
#                  345: clock = 0 | flick = 0 | led = 0000000011111111
# 
#                  350: clock = 1 | flick = 0 | led = 0000000111111111
# 
#                  355: clock = 0 | flick = 0 | led = 0000000111111111
# 
#                  360: clock = 1 | flick = 0 | led = 0000001111111111
# 
#                  365: clock = 0 | flick = 0 | led = 0000001111111111
# 
#                  370: clock = 1 | flick = 0 | led = 0000011111111111
# 
#                  375: clock = 0 | flick = 0 | led = 0000011111111111
# 
#                  380: clock = 1 | flick = 0 | led = 0000111111111111
# 
#                  385: clock = 0 | flick = 0 | led = 0000111111111111
# 
#                  390: clock = 1 | flick = 0 | led = 0001111111111111
# 
#                  395: clock = 0 | flick = 0 | led = 0001111111111111
# 
#                  400: clock = 1 | flick = 0 | led = 0011111111111111
# 
#                  405: clock = 0 | flick = 0 | led = 0011111111111111
# 
#                  410: clock = 1 | flick = 0 | led = 0111111111111111
# 
#                  415: clock = 0 | flick = 0 | led = 0111111111111111
# 
#                  420: clock = 1 | flick = 0 | led = 1111111111111111
# 
#                  425: clock = 0 | flick = 0 | led = 1111111111111111
# 
#                  430: clock = 1 | flick = 0 | led = 0111111111111111
# 
#                  435: clock = 0 | flick = 0 | led = 0111111111111111
# 
#                  440: clock = 1 | flick = 0 | led = 0011111111111111
# 
#                  445: clock = 0 | flick = 0 | led = 0011111111111111
# 
#                  450: clock = 1 | flick = 0 | led = 0001111111111111
# 
#                  455: clock = 0 | flick = 0 | led = 0001111111111111
# 
#                  460: clock = 1 | flick = 0 | led = 0000111111111111
# 
#                  465: clock = 0 | flick = 0 | led = 0000111111111111
# 
#                  470: clock = 1 | flick = 0 | led = 0000011111111111
# 
#                  475: clock = 0 | flick = 0 | led = 0000011111111111
# 
#                  480: clock = 1 | flick = 0 | led = 0000001111111111
# 
#                  485: clock = 0 | flick = 0 | led = 0000001111111111
# 
#                  490: clock = 1 | flick = 0 | led = 0000000111111111
# 
#                  495: clock = 0 | flick = 0 | led = 0000000111111111
# 
#                  500: clock = 1 | flick = 0 | led = 0000000011111111
# 
#                  505: clock = 0 | flick = 0 | led = 0000000011111111
# 
#                  510: clock = 1 | flick = 0 | led = 0000000001111111
# 
#                  515: clock = 0 | flick = 0 | led = 0000000001111111
# 
#                  520: clock = 1 | flick = 0 | led = 0000000000111111
# 
#                  525: clock = 0 | flick = 0 | led = 0000000000111111
# 
#                  530: clock = 1 | flick = 0 | led = 0000000000011111
# 
#                  535: clock = 0 | flick = 0 | led = 0000000000011111
# 
#                  540: clock = 1 | flick = 0 | led = 0000000000001111
# 
#                  545: clock = 0 | flick = 0 | led = 0000000000001111
# 
#                  550: clock = 1 | flick = 0 | led = 0000000000000111
# 
#                  555: clock = 0 | flick = 0 | led = 0000000000000111
# 
#                  560: clock = 1 | flick = 0 | led = 0000000000000011
# 
#                  565: clock = 0 | flick = 0 | led = 0000000000000011
# 
#                  570: clock = 1 | flick = 0 | led = 0000000000000001
# 
#                  575: clock = 0 | flick = 0 | led = 0000000000000001
# 
#                  580: clock = 1 | flick = 0 | led = 0000000000000000
# 
#                  585: clock = 0 | flick = 0 | led = 0000000000000000
# 
#                  590: clock = 1 | flick = 0 | led = 0000000000000000
# 
#                  595: clock = 0 | flick = 0 | led = 0000000000000000
# 
#                  600: clock = 1 | flick = 0 | led = 0000000000000000
# 
#                  605: clock = 0 | flick = 0 | led = 0000000000000000
# 
#                  610: clock = 1 | flick = 0 | led = 0000000000000000
# 
#                  615: clock = 0 | flick = 0 | led = 0000000000000000
# 
#                  620: clock = 1 | flick = 0 | led = 0000000000000000
# 
#                  625: clock = 0 | flick = 0 | led = 0000000000000000
# 
#                  630: clock = 1 | flick = 0 | led = 0000000000000000
# 
#                  635: clock = 0 | flick = 0 | led = 0000000000000000
# 
#                  640: clock = 1 | flick = 0 | led = 0000000000000000
# 
#                  645: clock = 0 | flick = 1 | led = 0000000000000000
# 
#                  650: clock = 1 | flick = 0 | led = 0000000000000001
# 
#                  655: clock = 0 | flick = 0 | led = 0000000000000001
# 
#                  660: clock = 1 | flick = 0 | led = 0000000000000011
# 
#                  665: clock = 0 | flick = 0 | led = 0000000000000011
# 
#                  670: clock = 1 | flick = 0 | led = 0000000000000111
# 
#                  675: clock = 0 | flick = 0 | led = 0000000000000111
# 
#                  680: clock = 1 | flick = 0 | led = 0000000000001111
# 
#                  685: clock = 0 | flick = 0 | led = 0000000000001111
# 
#                  690: clock = 1 | flick = 0 | led = 0000000000011111
# 
#                  695: clock = 0 | flick = 0 | led = 0000000000011111
# 
#                  700: clock = 1 | flick = 0 | led = 0000000000111111
# 
#                  705: clock = 0 | flick = 0 | led = 0000000000111111
# 
#                  710: clock = 1 | flick = 0 | led = 0000000000011111
# 
#                  715: clock = 0 | flick = 0 | led = 0000000000011111
# 
#                  720: clock = 1 | flick = 0 | led = 0000000000001111
# 
#                  725: clock = 0 | flick = 0 | led = 0000000000001111
# 
#                  730: clock = 1 | flick = 0 | led = 0000000000000111
# 
#                  735: clock = 0 | flick = 0 | led = 0000000000000111
# 
#                  740: clock = 1 | flick = 0 | led = 0000000000000011
# 
#                  745: clock = 0 | flick = 0 | led = 0000000000000011
# 
#                  750: clock = 1 | flick = 0 | led = 0000000000000001
# 
#                  755: clock = 0 | flick = 0 | led = 0000000000000001
# 
#                  760: clock = 1 | flick = 0 | led = 0000000000000000
# 
#                  765: clock = 0 | flick = 0 | led = 0000000000000000
# 
#                  770: clock = 1 | flick = 0 | led = 0000000000000001
# 
#                  775: clock = 0 | flick = 0 | led = 0000000000000001
# 
#                  780: clock = 1 | flick = 0 | led = 0000000000000011
# 
#                  785: clock = 0 | flick = 0 | led = 0000000000000011
# 
#                  790: clock = 1 | flick = 0 | led = 0000000000000111
# 
#                  795: clock = 0 | flick = 0 | led = 0000000000000111
# 
#                  800: clock = 1 | flick = 0 | led = 0000000000001111
# 
#                  805: clock = 0 | flick = 0 | led = 0000000000001111
# 
#                  810: clock = 1 | flick = 0 | led = 0000000000011111
# 
#                  815: clock = 0 | flick = 0 | led = 0000000000011111
# 
#                  820: clock = 1 | flick = 0 | led = 0000000000111111
# 
#                  825: clock = 0 | flick = 0 | led = 0000000000111111
# 
#                  830: clock = 1 | flick = 0 | led = 0000000001111111
# 
#                  835: clock = 0 | flick = 0 | led = 0000000001111111
# 
#                  840: clock = 1 | flick = 0 | led = 0000000011111111
# 
#                  845: clock = 0 | flick = 0 | led = 0000000011111111
# 
#                  850: clock = 1 | flick = 0 | led = 0000000111111111
# 
#                  855: clock = 0 | flick = 0 | led = 0000000111111111
# 
#                  860: clock = 1 | flick = 0 | led = 0000001111111111
# 
#                  865: clock = 0 | flick = 0 | led = 0000001111111111
# 
#                  870: clock = 1 | flick = 0 | led = 0000011111111111
# 
#                  875: clock = 0 | flick = 0 | led = 0000011111111111
# 
#                  880: clock = 1 | flick = 0 | led = 0000001111111111
# 
#                  885: clock = 0 | flick = 0 | led = 0000001111111111
# 
#                  890: clock = 1 | flick = 0 | led = 0000000111111111
# 
#                  895: clock = 0 | flick = 0 | led = 0000000111111111
# 
#                  900: clock = 1 | flick = 0 | led = 0000000011111111
# 
#                  905: clock = 0 | flick = 0 | led = 0000000011111111
# 
#                  910: clock = 1 | flick = 0 | led = 0000000001111111
# 
#                  915: clock = 0 | flick = 0 | led = 0000000001111111
# 
#                  920: clock = 1 | flick = 0 | led = 0000000000111111
# 
#                  925: clock = 0 | flick = 0 | led = 0000000000111111
# 
#                  930: clock = 1 | flick = 0 | led = 0000000000011111
# 
#                  935: clock = 0 | flick = 0 | led = 0000000000011111
# 
#                  940: clock = 1 | flick = 0 | led = 0000000000111111
# 
#                  945: clock = 0 | flick = 0 | led = 0000000000111111
# 
#                  950: clock = 1 | flick = 0 | led = 0000000001111111
# 
#                  955: clock = 0 | flick = 0 | led = 0000000001111111
# 
#                  960: clock = 1 | flick = 0 | led = 0000000011111111
# 
#                  965: clock = 0 | flick = 0 | led = 0000000011111111
# 
#                  970: clock = 1 | flick = 0 | led = 0000000111111111
# 
#                  975: clock = 0 | flick = 0 | led = 0000000111111111
# 
#                  980: clock = 1 | flick = 0 | led = 0000001111111111
# 
#                  985: clock = 0 | flick = 0 | led = 0000001111111111
# 
#                  990: clock = 1 | flick = 0 | led = 0000011111111111
# 
#                  995: clock = 0 | flick = 0 | led = 0000011111111111
# 
#                 1000: clock = 1 | flick = 0 | led = 0000111111111111
# 
#                 1005: clock = 0 | flick = 0 | led = 0000111111111111
# 
#                 1010: clock = 1 | flick = 0 | led = 0001111111111111
# 
#                 1015: clock = 0 | flick = 0 | led = 0001111111111111
# 
#                 1020: clock = 1 | flick = 0 | led = 0011111111111111
# 
#                 1025: clock = 0 | flick = 0 | led = 0011111111111111
# 
#                 1030: clock = 1 | flick = 0 | led = 0111111111111111
# 
#                 1035: clock = 0 | flick = 0 | led = 0111111111111111
# 
#                 1040: clock = 1 | flick = 0 | led = 1111111111111111
# 
#                 1045: clock = 0 | flick = 0 | led = 1111111111111111
# 
#                 1050: clock = 1 | flick = 0 | led = 0111111111111111
# 
#                 1055: clock = 0 | flick = 0 | led = 0111111111111111
# 
#                 1060: clock = 1 | flick = 0 | led = 0011111111111111
# 
#                 1065: clock = 0 | flick = 0 | led = 0011111111111111
# 
#                 1070: clock = 1 | flick = 0 | led = 0001111111111111
# 
#                 1075: clock = 0 | flick = 0 | led = 0001111111111111
# 
#                 1080: clock = 1 | flick = 0 | led = 0000111111111111
# 
#                 1085: clock = 0 | flick = 0 | led = 0000111111111111
# 
#                 1090: clock = 1 | flick = 0 | led = 0000011111111111
# 
#                 1095: clock = 0 | flick = 0 | led = 0000011111111111
# 
#                 1100: clock = 1 | flick = 0 | led = 0000001111111111
# 
#                 1105: clock = 0 | flick = 0 | led = 0000001111111111
# 
#                 1110: clock = 1 | flick = 0 | led = 0000000111111111
# 
#                 1115: clock = 0 | flick = 0 | led = 0000000111111111
# 
#                 1120: clock = 1 | flick = 0 | led = 0000000011111111
# 
#                 1125: clock = 0 | flick = 0 | led = 0000000011111111
# 
#                 1130: clock = 1 | flick = 0 | led = 0000000001111111
# 
#                 1135: clock = 0 | flick = 0 | led = 0000000001111111
# 
#                 1140: clock = 1 | flick = 0 | led = 0000000000111111
# 
#                 1145: clock = 0 | flick = 0 | led = 0000000000111111
# 
#                 1150: clock = 1 | flick = 0 | led = 0000000000011111
# 
#                 1155: clock = 0 | flick = 0 | led = 0000000000011111
# 
#                 1160: clock = 1 | flick = 0 | led = 0000000000001111
# 
#                 1165: clock = 0 | flick = 0 | led = 0000000000001111
# 
#                 1170: clock = 1 | flick = 0 | led = 0000000000000111
# 
#                 1175: clock = 0 | flick = 0 | led = 0000000000000111
# 
#                 1180: clock = 1 | flick = 0 | led = 0000000000000011
# 
#                 1185: clock = 0 | flick = 0 | led = 0000000000000011
# 
#                 1190: clock = 1 | flick = 0 | led = 0000000000000001
# 
#                 1195: clock = 0 | flick = 0 | led = 0000000000000001
# 
#                 1200: clock = 1 | flick = 0 | led = 0000000000000000
# 
#                 1205: clock = 0 | flick = 0 | led = 0000000000000000
# 
#                 1210: clock = 1 | flick = 0 | led = 0000000000000000
# 
#                 1215: clock = 0 | flick = 0 | led = 0000000000000000
# 
#                 1220: clock = 1 | flick = 0 | led = 0000000000000000
# 
#                 1225: clock = 0 | flick = 0 | led = 0000000000000000
# 
#                 1230: clock = 1 | flick = 0 | led = 0000000000000000
# 
#                 1235: clock = 0 | flick = 0 | led = 0000000000000000
# 
#                 1240: clock = 1 | flick = 0 | led = 0000000000000000
# 
#                 1245: clock = 0 | flick = 0 | led = 0000000000000000
# 
# ** Note: $stop    : D:/Quang/202/Verilog/lab1/t_bound_flasher.v(26)
#    Time: 1250 ps  Iteration: 0  Instance: /t_bound_flasher
# Break in Module t_bound_flasher at D:/Quang/202/Verilog/lab1/t_bound_flasher.v line 26
# End time: 14:58:25 on May 03,2021, Elapsed time: 0:02:37
# Errors: 0, Warnings: 0
